EESchema Schematic File Version 4
EELAYER 30 0
EELAYER END
$Descr A4 11693 8268
encoding utf-8
Sheet 3 5
Title "IZIRUNF0"
Date "2020-07-06"
Rev "A"
Comp "IZITRON"
Comment1 ""
Comment2 ""
Comment3 ""
Comment4 ""
$EndDescr
Connection ~ 6720 3125
$Comp
L device:C_Small C11
U 1 1 5ECD3D2D
P 6720 3305
F 0 "C11" H 6830 3385 59  0000 C CIB
F 1 "10uF" H 6820 3230 39  0000 C CIB
F 2 "Capacitor_SMD:C_0603_1608Metric" H 6720 3305 39  0001 C CIB
F 3 "~" H 6720 3305 39  0001 C CIB
F 4 "https://fr.farnell.com/murata/grm21br61c106ke15k/condensateur-10-f-16v-10-x5r-0805/dp/2611940" H -1205 -245 39  0001 C CIB "Distributor"
F 5 "GRM21BR61C106KE15K" H -1205 -245 39  0001 C CIB "Manufacture Ref"
	1    6720 3305
	1    0    0    -1  
$EndComp
$Comp
L power:GND #PWR025
U 1 1 5ECE1140
P 5770 4165
F 0 "#PWR025" H 5770 3915 59  0001 C CIB
F 1 "GND" H 5770 4020 39  0000 C CIB
F 2 "" H 5770 4165 39  0001 C CIB
F 3 "" H 5770 4165 39  0001 C CIB
	1    5770 4165
	1    0    0    -1  
$EndComp
$Comp
L power:+3V3 #PWR026
U 1 1 5EC774DF
P 6720 2885
F 0 "#PWR026" H 6720 2735 59  0001 C CIB
F 1 "+3V3" H 6735 3058 39  0000 C CIB
F 2 "" H 6720 2885 39  0001 C CIB
F 3 "" H 6720 2885 39  0001 C CIB
	1    6720 2885
	1    0    0    -1  
$EndComp
Wire Wire Line
	6720 2885 6720 3125
Wire Wire Line
	6720 3405 6720 3565
Wire Wire Line
	6720 3125 6720 3205
Wire Wire Line
	5770 4025 5770 4165
Wire Wire Line
	4315 3125 4315 3205
$Comp
L power:+5V #PWR022
U 1 1 5F050ACE
P 4315 2880
F 0 "#PWR022" H 4315 2730 59  0001 C CIB
F 1 "+5V" H 4330 3053 39  0000 C CIB
F 2 "" H 4315 2880 39  0001 C CIB
F 3 "" H 4315 2880 39  0001 C CIB
	1    4315 2880
	1    0    0    -1  
$EndComp
Wire Wire Line
	4315 2880 4315 3125
Connection ~ 4315 3125
Text Notes 5910 2460 2    79   Italic 16
LDO
Text Notes 6150 775  2    118  Italic 24
POWER
$Comp
L power:GND #PWR027
U 1 1 5ECB8F51
P 6720 3565
F 0 "#PWR027" H 6720 3315 59  0001 C CIB
F 1 "GND" H 6725 3420 39  0000 C CIB
F 2 "" H 6720 3565 39  0001 C CIB
F 3 "" H 6720 3565 39  0001 C CIB
	1    6720 3565
	1    0    0    -1  
$EndComp
$Comp
L device:C_Small C10
U 1 1 5F06B7CB
P 4735 3305
F 0 "C10" H 4845 3385 59  0000 C CIB
F 1 "1uF" H 4830 3230 39  0000 C CIB
F 2 "Capacitor_SMD:C_0603_1608Metric" H 4735 3305 39  0001 C CIB
F 3 "~" H 4735 3305 39  0001 C CIB
F 4 "https://fr.farnell.com/murata/grm21br61c106ke15k/condensateur-10-f-16v-10-x5r-0805/dp/2611940" H -3190 -245 39  0001 C CIB "Distributor"
F 5 "GRM21BR61C106KE15K" H -3190 -245 39  0001 C CIB "Manufacture Ref"
	1    4735 3305
	1    0    0    -1  
$EndComp
$Comp
L power:GND #PWR024
U 1 1 5EF7E054
P 4735 3565
F 0 "#PWR024" H 4735 3315 59  0001 C CIB
F 1 "GND" H 4740 3420 39  0000 C CIB
F 2 "" H 4735 3565 39  0001 C CIB
F 3 "" H 4735 3565 39  0001 C CIB
	1    4735 3565
	1    0    0    -1  
$EndComp
Wire Wire Line
	4735 3565 4735 3405
Wire Wire Line
	4735 3205 4735 3125
Connection ~ 4735 3125
Wire Wire Line
	4735 3125 4315 3125
$Comp
L power:GND #PWR023
U 1 1 5ECF6773
P 4315 3565
F 0 "#PWR023" H 4315 3315 59  0001 C CIB
F 1 "GND" H 4320 3420 39  0000 C CIB
F 2 "" H 4315 3565 39  0001 C CIB
F 3 "" H 4315 3565 39  0001 C CIB
	1    4315 3565
	1    0    0    -1  
$EndComp
Wire Wire Line
	4315 3405 4315 3565
$Comp
L power:PWR_FLAG #FLG?
U 1 1 5F000629
P 1265 1250
AR Path="/5F047122/5EFE5807" Ref="#FLG?"  Part="1" 
AR Path="/5F047122/5F000629" Ref="#FLG04"  Part="1" 
F 0 "#FLG04" H 1265 1325 59  0001 C CIB
F 1 "PWR_FLAG" V 1270 1515 39  0000 C CIB
F 2 "" H 1265 1250 39  0001 C CIB
F 3 "~" H 1265 1250 39  0001 C CIB
	1    1265 1250
	0    -1   -1   0   
$EndComp
Wire Wire Line
	1265 1250 1515 1250
$Comp
L power:GND #PWR021
U 1 1 5F003546
P 1515 1250
F 0 "#PWR021" H 1515 1000 59  0001 C CIB
F 1 "GND" V 1515 1060 39  0000 C CIB
F 2 "" H 1515 1250 39  0001 C CIB
F 3 "" H 1515 1250 39  0001 C CIB
	1    1515 1250
	0    -1   -1   0   
$EndComp
$Comp
L power:+3V3 #PWR020
U 1 1 5EFE989E
P 1515 1100
F 0 "#PWR020" H 1515 950 59  0001 C CIB
F 1 "+3V3" V 1515 1300 39  0000 C CIB
F 2 "" H 1515 1100 39  0001 C CIB
F 3 "" H 1515 1100 39  0001 C CIB
	1    1515 1100
	0    1    1    0   
$EndComp
Wire Wire Line
	1265 1100 1515 1100
$Comp
L power:PWR_FLAG #FLG03
U 1 1 5EFE5807
P 1265 1100
F 0 "#FLG03" H 1265 1175 59  0001 C CIB
F 1 "PWR_FLAG" V 1270 1365 39  0000 C CIB
F 2 "" H 1265 1100 39  0001 C CIB
F 3 "~" H 1265 1100 39  0001 C CIB
	1    1265 1100
	0    -1   -1   0   
$EndComp
$Comp
L power:+5V #PWR019
U 1 1 5EFE35FD
P 1510 950
F 0 "#PWR019" H 1510 800 59  0001 C CIB
F 1 "+5V" V 1510 1130 39  0000 C CIB
F 2 "" H 1510 950 39  0001 C CIB
F 3 "" H 1510 950 39  0001 C CIB
	1    1510 950 
	0    1    1    0   
$EndComp
Wire Wire Line
	1265 950  1510 950 
$Comp
L power:PWR_FLAG #FLG02
U 1 1 5CECAE3E
P 1265 950
F 0 "#FLG02" H 1265 1025 59  0001 C CIB
F 1 "PWR_FLAG" V 1270 1215 39  0000 C CIB
F 2 "" H 1265 950 39  0001 C CIB
F 3 "~" H 1265 950 39  0001 C CIB
	1    1265 950 
	0    -1   -1   0   
$EndComp
$Comp
L device:LED_Small D?
U 1 1 5CC01C20
P 7680 3125
AR Path="/5C8F350B/5CC01C20" Ref="D?"  Part="1" 
AR Path="/5C90C3D3/5CC01C20" Ref="D?"  Part="1" 
AR Path="/5EB5BEF3/5CC01C20" Ref="D?"  Part="1" 
AR Path="/5F047122/5CC01C20" Ref="D2"  Part="1" 
F 0 "D2" H 7675 3245 59  0000 C CIB
F 1 "GREEN 2mA" H 7680 3045 39  0000 C CIB
F 2 "LED_SMD:LED_0805_2012Metric" V 7680 3125 39  0001 C CIB
F 3 "~" V 7680 3125 39  0001 C CIB
F 4 "2217981" H 7680 3125 39  0001 C CIB "FARNELL"
F 5 "KPT-2012ZGC" H 7685 2975 39  0000 C CIB "FAB REF"
F 6 "C598372" H 7680 3125 39  0001 C CIB "LCSC"
	1    7680 3125
	-1   0    0    1   
$EndComp
$Comp
L device:R_Small R?
U 1 1 5CC01C19
P 7385 3125
AR Path="/5CC01C19" Ref="R?"  Part="1" 
AR Path="/5C8F350B/5CC01C19" Ref="R?"  Part="1" 
AR Path="/5C90C3D3/5CC01C19" Ref="R?"  Part="1" 
AR Path="/5EB5BEF3/5CC01C19" Ref="R?"  Part="1" 
AR Path="/5F047122/5CC01C19" Ref="R8"  Part="1" 
F 0 "R8" V 7470 3125 59  0000 C CIB
F 1 "750" V 7385 3120 39  0000 C CIB
F 2 "Resistor_SMD:R_0603_1608Metric" H 7385 3125 39  0001 C CIB
F 3 "~" H 7385 3125 39  0001 C CIB
	1    7385 3125
	0    -1   1    0   
$EndComp
$Comp
L power:GND #PWR?
U 1 1 5CC01C27
P 7830 3125
AR Path="/5CC01C27" Ref="#PWR?"  Part="1" 
AR Path="/5C8F350B/5CC01C27" Ref="#PWR?"  Part="1" 
AR Path="/5C90C3D3/5CC01C27" Ref="#PWR?"  Part="1" 
AR Path="/5EB5BEF3/5CC01C27" Ref="#PWR?"  Part="1" 
AR Path="/5F047122/5CC01C27" Ref="#PWR028"  Part="1" 
F 0 "#PWR028" H 7830 2875 59  0001 C CIB
F 1 "GND" V 7825 2945 39  0000 C CIB
F 2 "" H 7830 3125 39  0001 C CIB
F 3 "" H 7830 3125 39  0001 C CIB
	1    7830 3125
	0    -1   1    0   
$EndComp
Wire Wire Line
	7780 3125 7830 3125
Wire Wire Line
	6720 3125 7285 3125
Wire Wire Line
	7485 3125 7580 3125
$Comp
L device:C_Small C9
U 1 1 5ECFF147
P 4315 3305
F 0 "C9" H 4425 3385 59  0000 C CIB
F 1 "10uF" H 4410 3230 39  0000 C CIB
F 2 "Capacitor_SMD:C_0603_1608Metric" H 4315 3305 39  0001 C CIB
F 3 "~" H 4315 3305 39  0001 C CIB
F 4 "https://fr.farnell.com/murata/grm21br61c106ke15k/condensateur-10-f-16v-10-x5r-0805/dp/2611940" H -3610 -245 39  0001 C CIB "Distributor"
F 5 "GRM21BR61C106KE15K" H -3610 -245 39  0001 C CIB "Manufacture Ref"
	1    4315 3305
	1    0    0    -1  
$EndComp
$Comp
L SamacSys_Parts:NCP708MU330TAG U4
U 1 1 5FF0EA7C
P 5775 3275
F 0 "U4" H 5775 3716 39  0000 C CIB
F 1 "NCP708MU330TAG" H 5775 3641 39  0000 C CIB
F 2 "SamacSys_Parts:SON95P300X300X55-7N" H 5375 4525 50  0001 L CNN
F 3 "https://www.onsemi.com/pub/Collateral/NCP708-D.PDF" H 5375 4425 50  0001 L CNN
F 4 "LDO Regulator Pos 3.3V 1A 6-Pin UDFN EP T/R" H 5375 4325 50  0001 L CNN "Description"
F 5 "0.55" H 5375 3725 50  0001 L CNN "Height"
F 6 "863-NCP708MU330TAG" H 5375 4125 50  0001 L CNN "Mouser Part Number"
F 7 "https://www.mouser.co.uk/ProductDetail/ON-Semiconductor/NCP708MU330TAG?qs=tCMd4XlZ%2FiAK%2FL2%2FBzPAnw%3D%3D" H 5375 4025 50  0001 L CNN "Mouser Price/Stock"
F 8 "ON Semiconductor" H 5375 3925 50  0001 L CNN "Manufacturer_Name"
F 9 "NCP708MU330TAG" H 5375 3825 50  0001 L CNN "Manufacturer_Part_Number"
	1    5775 3275
	1    0    0    -1  
$EndComp
Wire Wire Line
	5675 3875 5675 4025
Wire Wire Line
	5675 4025 5770 4025
Wire Wire Line
	5875 3875 5875 4025
Wire Wire Line
	5875 4025 5770 4025
Connection ~ 5770 4025
Wire Wire Line
	4735 3125 5070 3125
Wire Wire Line
	5175 3375 5070 3375
Wire Wire Line
	5070 3375 5070 3125
Connection ~ 5070 3125
Wire Wire Line
	5070 3125 5175 3125
Wire Wire Line
	6375 3125 6515 3125
Wire Wire Line
	6375 3475 6515 3475
Wire Wire Line
	6515 3475 6515 3125
Connection ~ 6515 3125
Wire Wire Line
	6515 3125 6720 3125
$EndSCHEMATC
